{"events":[{"id":470260,"timestamp":"2026-04-14T08:15:03.3336395Z","event_id":4624,"level":"Info","source":"Microsoft-Windows-Security-Auditing","log_name":"Security","computer":"DESKTOP-5RIKSUG","message":"RemoteCredentialGuard=-; SubjectUserName=DESKTOP-5RIKSUG$; TargetUserSid=S-1-5-18; TargetDomainName=NT AUTHORITY; TargetLogonId=0x000003e7; RestrictedAdminMode=-; TargetOutboundDomainName=-; VirtualAccount=%%1843; ElevatedToken=%%1842; TargetUserName=SYSTEM; LogonProcessName=Advapi  ; LogonGuid=00000000-0000-0000-0000-000000000000; KeyLength=0; IpAddress=-; TargetOutboundUserName=-; TargetLinkedLogonId=0x00000000; SubjectDomainName=WORKGROUP; SubjectLogonId=0x000003e7; LogonType=5; ProcessId=0x00000664; IpPort=-; SubjectUserSid=S-1-5-18; AuthenticationPackageName=Negotiate; WorkstationName=-; TransmittedServices=-; LmPackageName=-; ProcessName=C:\\Windows\\System32\\services.exe; ImpersonationLevel=%%1833","raw_xml":"{\"Event\":{\"EventData\":{\"AuthenticationPackageName\":\"Negotiate\",\"ElevatedToken\":\"%%1842\",\"ImpersonationLevel\":\"%%1833\",\"IpAddress\":\"-\",\"IpPort\":\"-\",\"KeyLength\":\"0\",\"LmPackageName\":\"-\",\"LogonGuid\":\"00000000-0000-0000-0000-000000000000\",\"LogonProcessName\":\"Advapi  \",\"LogonType\":\"5\",\"ProcessId\":\"0x00000664\",\"ProcessName\":\"C:\\\\Windows\\\\System32\\\\services.exe\",\"RemoteCredentialGuard\":\"-\",\"RestrictedAdminMode\":\"-\",\"SubjectDomainName\":\"WORKGROUP\",\"SubjectLogonId\":\"0x000003e7\",\"SubjectUserName\":\"DESKTOP-5RIKSUG$\",\"SubjectUserSid\":\"S-1-5-18\",\"TargetDomainName\":\"NT AUTHORITY\",\"TargetLinkedLogonId\":\"0x00000000\",\"TargetLogonId\":\"0x000003e7\",\"TargetOutboundDomainName\":\"-\",\"TargetOutboundUserName\":\"-\",\"TargetUserName\":\"SYSTEM\",\"TargetUserSid\":\"S-1-5-18\",\"TransmittedServices\":\"-\",\"VirtualAccount\":\"%%1843\",\"WorkstationName\":\"-\"},\"System\":{\"Channel\":\"Security\",\"Computer\":\"DESKTOP-5RIKSUG\",\"Correlation\":{\"ActivityID\":\"D0694131-CBB1-0004-2649-69D0B1CBDC01\"},\"EventID\":\"4624\",\"EventRecordID\":\"2020882\",\"Execution\":{\"ProcessID\":\"1688\",\"ThreadID\":\"26700\"},\"Keywords\":\"0x8020000000000000\",\"Level\":\"0\",\"Opcode\":\"0\",\"Provider\":{\"Guid\":\"54849625-5478-4994-A5BA-3E3B0328C30D\",\"Name\":\"Microsoft-Windows-Security-Auditing\"},\"Security\":{},\"Task\":\"12544\",\"TimeCreated\":{\"SystemTime\":\"2026-04-14T08:15:03.3336395Z\"},\"Version\":\"3\"}}}","import_time":"2026-04-19T16:25:13.955828584Z","import_id":224},{"id":470233,"timestamp":"2026-04-14T08:11:21.5582803Z","event_id":4624,"level":"Info","source":"Microsoft-Windows-Security-Auditing","log_name":"Security","computer":"DESKTOP-5RIKSUG","message":"RemoteCredentialGuard=-; TargetOutboundUserName=-; TargetLinkedLogonId=0x00000000; SubjectDomainName=WORKGROUP; TargetUserSid=S-1-5-18; TargetDomainName=NT AUTHORITY; LmPackageName=-; ProcessId=0x00000664; ImpersonationLevel=%%1833; TargetOutboundDomainName=-; ElevatedToken=%%1842; AuthenticationPackageName=Negotiate; LogonGuid=00000000-0000-0000-0000-000000000000; IpPort=-; RestrictedAdminMode=-; SubjectUserSid=S-1-5-18; SubjectLogonId=0x000003e7; TargetUserName=SYSTEM; TargetLogonId=0x000003e7; WorkstationName=-; TransmittedServices=-; ProcessName=C:\\Windows\\System32\\services.exe; VirtualAccount=%%1843; SubjectUserName=DESKTOP-5RIKSUG$; LogonType=5; LogonProcessName=Advapi  ; KeyLength=0; IpAddress=-","raw_xml":"{\"Event\":{\"EventData\":{\"AuthenticationPackageName\":\"Negotiate\",\"ElevatedToken\":\"%%1842\",\"ImpersonationLevel\":\"%%1833\",\"IpAddress\":\"-\",\"IpPort\":\"-\",\"KeyLength\":\"0\",\"LmPackageName\":\"-\",\"LogonGuid\":\"00000000-0000-0000-0000-000000000000\",\"LogonProcessName\":\"Advapi  \",\"LogonType\":\"5\",\"ProcessId\":\"0x00000664\",\"ProcessName\":\"C:\\\\Windows\\\\System32\\\\services.exe\",\"RemoteCredentialGuard\":\"-\",\"RestrictedAdminMode\":\"-\",\"SubjectDomainName\":\"WORKGROUP\",\"SubjectLogonId\":\"0x000003e7\",\"SubjectUserName\":\"DESKTOP-5RIKSUG$\",\"SubjectUserSid\":\"S-1-5-18\",\"TargetDomainName\":\"NT AUTHORITY\",\"TargetLinkedLogonId\":\"0x00000000\",\"TargetLogonId\":\"0x000003e7\",\"TargetOutboundDomainName\":\"-\",\"TargetOutboundUserName\":\"-\",\"TargetUserName\":\"SYSTEM\",\"TargetUserSid\":\"S-1-5-18\",\"TransmittedServices\":\"-\",\"VirtualAccount\":\"%%1843\",\"WorkstationName\":\"-\"},\"System\":{\"Channel\":\"Security\",\"Computer\":\"DESKTOP-5RIKSUG\",\"Correlation\":{\"ActivityID\":\"D0694131-CBB1-0004-2649-69D0B1CBDC01\"},\"EventID\":\"4624\",\"EventRecordID\":\"2020855\",\"Execution\":{\"ProcessID\":\"1688\",\"ThreadID\":\"3116\"},\"Keywords\":\"0x8020000000000000\",\"Level\":\"0\",\"Opcode\":\"0\",\"Provider\":{\"Guid\":\"54849625-5478-4994-A5BA-3E3B0328C30D\",\"Name\":\"Microsoft-Windows-Security-Auditing\"},\"Security\":{},\"Task\":\"12544\",\"TimeCreated\":{\"SystemTime\":\"2026-04-14T08:11:21.5582803Z\"},\"Version\":\"3\"}}}","import_time":"2026-04-19T16:25:13.955364559Z","import_id":224},{"id":470222,"timestamp":"2026-04-14T08:11:16.7776985Z","event_id":4624,"level":"Info","source":"Microsoft-Windows-Security-Auditing","log_name":"Security","computer":"DESKTOP-5RIKSUG","message":"SubjectUserName=DESKTOP-5RIKSUG$; SubjectLogonId=0x000003e7; TargetUserSid=S-1-5-18; TargetLogonId=0x000003e7; WorkstationName=-; ProcessId=0x00000664; TargetOutboundDomainName=-; VirtualAccount=%%1843; TargetDomainName=NT AUTHORITY; LogonType=5; LogonProcessName=Advapi  ; LmPackageName=-; ProcessName=C:\\Windows\\System32\\services.exe; TargetOutboundUserName=-; SubjectDomainName=WORKGROUP; TransmittedServices=-; KeyLength=0; IpAddress=-; TargetLinkedLogonId=0x00000000; ElevatedToken=%%1842; SubjectUserSid=S-1-5-18; TargetUserName=SYSTEM; AuthenticationPackageName=Negotiate; LogonGuid=00000000-0000-0000-0000-000000000000; IpPort=-; ImpersonationLevel=%%1833; RestrictedAdminMode=-; RemoteCredentialGuard=-","raw_xml":"{\"Event\":{\"EventData\":{\"AuthenticationPackageName\":\"Negotiate\",\"ElevatedToken\":\"%%1842\",\"ImpersonationLevel\":\"%%1833\",\"IpAddress\":\"-\",\"IpPort\":\"-\",\"KeyLength\":\"0\",\"LmPackageName\":\"-\",\"LogonGuid\":\"00000000-0000-0000-0000-000000000000\",\"LogonProcessName\":\"Advapi  \",\"LogonType\":\"5\",\"ProcessId\":\"0x00000664\",\"ProcessName\":\"C:\\\\Windows\\\\System32\\\\services.exe\",\"RemoteCredentialGuard\":\"-\",\"RestrictedAdminMode\":\"-\",\"SubjectDomainName\":\"WORKGROUP\",\"SubjectLogonId\":\"0x000003e7\",\"SubjectUserName\":\"DESKTOP-5RIKSUG$\",\"SubjectUserSid\":\"S-1-5-18\",\"TargetDomainName\":\"NT AUTHORITY\",\"TargetLinkedLogonId\":\"0x00000000\",\"TargetLogonId\":\"0x000003e7\",\"TargetOutboundDomainName\":\"-\",\"TargetOutboundUserName\":\"-\",\"TargetUserName\":\"SYSTEM\",\"TargetUserSid\":\"S-1-5-18\",\"TransmittedServices\":\"-\",\"VirtualAccount\":\"%%1843\",\"WorkstationName\":\"-\"},\"System\":{\"Channel\":\"Security\",\"Computer\":\"DESKTOP-5RIKSUG\",\"Correlation\":{\"ActivityID\":\"D0694131-CBB1-0004-2649-69D0B1CBDC01\"},\"EventID\":\"4624\",\"EventRecordID\":\"2020844\",\"Execution\":{\"ProcessID\":\"1688\",\"ThreadID\":\"26700\"},\"Keywords\":\"0x8020000000000000\",\"Level\":\"0\",\"Opcode\":\"0\",\"Provider\":{\"Guid\":\"54849625-5478-4994-A5BA-3E3B0328C30D\",\"Name\":\"Microsoft-Windows-Security-Auditing\"},\"Security\":{},\"Task\":\"12544\",\"TimeCreated\":{\"SystemTime\":\"2026-04-14T08:11:16.7776985Z\"},\"Version\":\"3\"}}}","import_time":"2026-04-19T16:25:13.955119561Z","import_id":224},{"id":469986,"timestamp":"2026-04-14T08:01:25.8836016Z","event_id":4624,"level":"Info","source":"Microsoft-Windows-Security-Auditing","log_name":"Security","computer":"DESKTOP-5RIKSUG","message":"SubjectDomainName=WORKGROUP; TargetUserSid=S-1-5-21-849657947-3583614015-1989336548-1001; TargetDomainName=DESKTOP-5RIKSUG; WorkstationName=DESKTOP-5RIKSUG; LmPackageName=-; RestrictedAdminMode=-; RemoteCredentialGuard=-; SubjectUserName=DESKTOP-5RIKSUG$; TargetUserName=Lion; TargetLogonId=0x0a63f232; LogonProcessName=User32 ; IpAddress=127.0.0.1; TargetOutboundDomainName=-; VirtualAccount=%%1843; ElevatedToken=%%1842; TransmittedServices=-; IpPort=0; TargetOutboundUserName=-; TargetLinkedLogonId=0x00000000; SubjectLogonId=0x000003e7; LogonType=2; AuthenticationPackageName=Negotiate; LogonGuid=00000000-0000-0000-0000-000000000000; KeyLength=0; ProcessId=0x00000b5c; ProcessName=C:\\Windows\\System32\\svchost.exe; ImpersonationLevel=%%1833; SubjectUserSid=S-1-5-18","raw_xml":"{\"Event\":{\"EventData\":{\"AuthenticationPackageName\":\"Negotiate\",\"ElevatedToken\":\"%%1842\",\"ImpersonationLevel\":\"%%1833\",\"IpAddress\":\"127.0.0.1\",\"IpPort\":\"0\",\"KeyLength\":\"0\",\"LmPackageName\":\"-\",\"LogonGuid\":\"00000000-0000-0000-0000-000000000000\",\"LogonProcessName\":\"User32 \",\"LogonType\":\"2\",\"ProcessId\":\"0x00000b5c\",\"ProcessName\":\"C:\\\\Windows\\\\System32\\\\svchost.exe\",\"RemoteCredentialGuard\":\"-\",\"RestrictedAdminMode\":\"-\",\"SubjectDomainName\":\"WORKGROUP\",\"SubjectLogonId\":\"0x000003e7\",\"SubjectUserName\":\"DESKTOP-5RIKSUG$\",\"SubjectUserSid\":\"S-1-5-18\",\"TargetDomainName\":\"DESKTOP-5RIKSUG\",\"TargetLinkedLogonId\":\"0x00000000\",\"TargetLogonId\":\"0x0a63f232\",\"TargetOutboundDomainName\":\"-\",\"TargetOutboundUserName\":\"-\",\"TargetUserName\":\"Lion\",\"TargetUserSid\":\"S-1-5-21-849657947-3583614015-1989336548-1001\",\"TransmittedServices\":\"-\",\"VirtualAccount\":\"%%1843\",\"WorkstationName\":\"DESKTOP-5RIKSUG\"},\"System\":{\"Channel\":\"Security\",\"Computer\":\"DESKTOP-5RIKSUG\",\"Correlation\":{\"ActivityID\":\"D0694131-CBB1-0004-2649-69D0B1CBDC01\"},\"EventID\":\"4624\",\"EventRecordID\":\"2020608\",\"Execution\":{\"ProcessID\":\"1688\",\"ThreadID\":\"1768\"},\"Keywords\":\"0x8020000000000000\",\"Level\":\"0\",\"Opcode\":\"0\",\"Provider\":{\"Guid\":\"54849625-5478-4994-A5BA-3E3B0328C30D\",\"Name\":\"Microsoft-Windows-Security-Auditing\"},\"Security\":{},\"Task\":\"12544\",\"TimeCreated\":{\"SystemTime\":\"2026-04-14T08:01:25.8836016Z\"},\"Version\":\"3\"}}}","import_time":"2026-04-19T16:25:13.934263579Z","import_id":224},{"id":469964,"timestamp":"2026-04-14T08:01:24.3528015Z","event_id":4624,"level":"Info","source":"Microsoft-Windows-Security-Auditing","log_name":"Security","computer":"DESKTOP-5RIKSUG","message":"TargetOutboundUserName=-; VirtualAccount=%%1843; TargetLinkedLogonId=0x00000000; ElevatedToken=%%1842; SubjectUserName=DESKTOP-5RIKSUG$; TargetUserSid=S-1-5-18; TargetUserName=SYSTEM; LogonProcessName=Advapi  ; KeyLength=0; IpAddress=-; SubjectUserSid=S-1-5-18; SubjectLogonId=0x000003e7; LogonType=5; TransmittedServices=-; ProcessId=0x00000664; TargetOutboundDomainName=-; SubjectDomainName=WORKGROUP; TargetLogonId=0x000003e7; WorkstationName=-; LogonGuid=00000000-0000-0000-0000-000000000000; LmPackageName=-; ProcessName=C:\\Windows\\System32\\services.exe; IpPort=-; ImpersonationLevel=%%1833; TargetDomainName=NT AUTHORITY; AuthenticationPackageName=Negotiate; RestrictedAdminMode=-; RemoteCredentialGuard=-","raw_xml":"{\"Event\":{\"EventData\":{\"AuthenticationPackageName\":\"Negotiate\",\"ElevatedToken\":\"%%1842\",\"ImpersonationLevel\":\"%%1833\",\"IpAddress\":\"-\",\"IpPort\":\"-\",\"KeyLength\":\"0\",\"LmPackageName\":\"-\",\"LogonGuid\":\"00000000-0000-0000-0000-000000000000\",\"LogonProcessName\":\"Advapi  \",\"LogonType\":\"5\",\"ProcessId\":\"0x00000664\",\"ProcessName\":\"C:\\\\Windows\\\\System32\\\\services.exe\",\"RemoteCredentialGuard\":\"-\",\"RestrictedAdminMode\":\"-\",\"SubjectDomainName\":\"WORKGROUP\",\"SubjectLogonId\":\"0x000003e7\",\"SubjectUserName\":\"DESKTOP-5RIKSUG$\",\"SubjectUserSid\":\"S-1-5-18\",\"TargetDomainName\":\"NT AUTHORITY\",\"TargetLinkedLogonId\":\"0x00000000\",\"TargetLogonId\":\"0x000003e7\",\"TargetOutboundDomainName\":\"-\",\"TargetOutboundUserName\":\"-\",\"TargetUserName\":\"SYSTEM\",\"TargetUserSid\":\"S-1-5-18\",\"TransmittedServices\":\"-\",\"VirtualAccount\":\"%%1843\",\"WorkstationName\":\"-\"},\"System\":{\"Channel\":\"Security\",\"Computer\":\"DESKTOP-5RIKSUG\",\"Correlation\":{\"ActivityID\":\"D0694131-CBB1-0004-2649-69D0B1CBDC01\"},\"EventID\":\"4624\",\"EventRecordID\":\"2020586\",\"Execution\":{\"ProcessID\":\"1688\",\"ThreadID\":\"1768\"},\"Keywords\":\"0x8020000000000000\",\"Level\":\"0\",\"Opcode\":\"0\",\"Provider\":{\"Guid\":\"54849625-5478-4994-A5BA-3E3B0328C30D\",\"Name\":\"Microsoft-Windows-Security-Auditing\"},\"Security\":{},\"Task\":\"12544\",\"TimeCreated\":{\"SystemTime\":\"2026-04-14T08:01:24.3528015Z\"},\"Version\":\"3\"}}}","import_time":"2026-04-19T16:25:13.915810957Z","import_id":224},{"id":469961,"timestamp":"2026-04-14T08:01:10.5045149Z","event_id":4624,"level":"Info","source":"Microsoft-Windows-Security-Auditing","log_name":"Security","computer":"DESKTOP-5RIKSUG","message":"SubjectDomainName=WORKGROUP; TargetUserName=SYSTEM; TargetDomainName=NT AUTHORITY; LogonGuid=00000000-0000-0000-0000-000000000000; TransmittedServices=-; RestrictedAdminMode=-; RemoteCredentialGuard=-; LogonProcessName=Advapi  ; KeyLength=0; IpPort=-; TargetOutboundDomainName=-; VirtualAccount=%%1843; ElevatedToken=%%1842; SubjectUserSid=S-1-5-18; SubjectLogonId=0x000003e7; TargetLogonId=0x000003e7; LmPackageName=-; ProcessId=0x00000664; ProcessName=C:\\Windows\\System32\\services.exe; IpAddress=-; ImpersonationLevel=%%1833; TargetUserSid=S-1-5-18; LogonType=5; AuthenticationPackageName=Negotiate; WorkstationName=-; TargetOutboundUserName=-; TargetLinkedLogonId=0x00000000; SubjectUserName=DESKTOP-5RIKSUG$","raw_xml":"{\"Event\":{\"EventData\":{\"AuthenticationPackageName\":\"Negotiate\",\"ElevatedToken\":\"%%1842\",\"ImpersonationLevel\":\"%%1833\",\"IpAddress\":\"-\",\"IpPort\":\"-\",\"KeyLength\":\"0\",\"LmPackageName\":\"-\",\"LogonGuid\":\"00000000-0000-0000-0000-000000000000\",\"LogonProcessName\":\"Advapi  \",\"LogonType\":\"5\",\"ProcessId\":\"0x00000664\",\"ProcessName\":\"C:\\\\Windows\\\\System32\\\\services.exe\",\"RemoteCredentialGuard\":\"-\",\"RestrictedAdminMode\":\"-\",\"SubjectDomainName\":\"WORKGROUP\",\"SubjectLogonId\":\"0x000003e7\",\"SubjectUserName\":\"DESKTOP-5RIKSUG$\",\"SubjectUserSid\":\"S-1-5-18\",\"TargetDomainName\":\"NT AUTHORITY\",\"TargetLinkedLogonId\":\"0x00000000\",\"TargetLogonId\":\"0x000003e7\",\"TargetOutboundDomainName\":\"-\",\"TargetOutboundUserName\":\"-\",\"TargetUserName\":\"SYSTEM\",\"TargetUserSid\":\"S-1-5-18\",\"TransmittedServices\":\"-\",\"VirtualAccount\":\"%%1843\",\"WorkstationName\":\"-\"},\"System\":{\"Channel\":\"Security\",\"Computer\":\"DESKTOP-5RIKSUG\",\"Correlation\":{\"ActivityID\":\"D0694131-CBB1-0004-2649-69D0B1CBDC01\"},\"EventID\":\"4624\",\"EventRecordID\":\"2020583\",\"Execution\":{\"ProcessID\":\"1688\",\"ThreadID\":\"27192\"},\"Keywords\":\"0x8020000000000000\",\"Level\":\"0\",\"Opcode\":\"0\",\"Provider\":{\"Guid\":\"54849625-5478-4994-A5BA-3E3B0328C30D\",\"Name\":\"Microsoft-Windows-Security-Auditing\"},\"Security\":{},\"Task\":\"12544\",\"TimeCreated\":{\"SystemTime\":\"2026-04-14T08:01:10.5045149Z\"},\"Version\":\"3\"}}}","import_time":"2026-04-19T16:25:13.915760287Z","import_id":224},{"id":469934,"timestamp":"2026-04-14T07:58:10.3954014Z","event_id":4624,"level":"Info","source":"Microsoft-Windows-Security-Auditing","log_name":"Security","computer":"DESKTOP-5RIKSUG","message":"TargetLogonId=0x000003e7; LogonType=5; LogonGuid=00000000-0000-0000-0000-000000000000; ProcessId=0x00000664; IpPort=-; ImpersonationLevel=%%1833; SubjectUserSid=S-1-5-18; SubjectUserName=DESKTOP-5RIKSUG$; SubjectDomainName=WORKGROUP; TargetDomainName=NT AUTHORITY; LogonProcessName=Advapi  ; AuthenticationPackageName=Negotiate; LmPackageName=-; KeyLength=0; TargetUserName=SYSTEM; WorkstationName=-; TransmittedServices=-; ProcessName=C:\\Windows\\System32\\services.exe; IpAddress=-; RestrictedAdminMode=-; TargetLinkedLogonId=0x00000000; RemoteCredentialGuard=-; TargetOutboundUserName=-; TargetOutboundDomainName=-; VirtualAccount=%%1843; ElevatedToken=%%1842; SubjectLogonId=0x000003e7; TargetUserSid=S-1-5-18","raw_xml":"{\"Event\":{\"EventData\":{\"AuthenticationPackageName\":\"Negotiate\",\"ElevatedToken\":\"%%1842\",\"ImpersonationLevel\":\"%%1833\",\"IpAddress\":\"-\",\"IpPort\":\"-\",\"KeyLength\":\"0\",\"LmPackageName\":\"-\",\"LogonGuid\":\"00000000-0000-0000-0000-000000000000\",\"LogonProcessName\":\"Advapi  \",\"LogonType\":\"5\",\"ProcessId\":\"0x00000664\",\"ProcessName\":\"C:\\\\Windows\\\\System32\\\\services.exe\",\"RemoteCredentialGuard\":\"-\",\"RestrictedAdminMode\":\"-\",\"SubjectDomainName\":\"WORKGROUP\",\"SubjectLogonId\":\"0x000003e7\",\"SubjectUserName\":\"DESKTOP-5RIKSUG$\",\"SubjectUserSid\":\"S-1-5-18\",\"TargetDomainName\":\"NT AUTHORITY\",\"TargetLinkedLogonId\":\"0x00000000\",\"TargetLogonId\":\"0x000003e7\",\"TargetOutboundDomainName\":\"-\",\"TargetOutboundUserName\":\"-\",\"TargetUserName\":\"SYSTEM\",\"TargetUserSid\":\"S-1-5-18\",\"TransmittedServices\":\"-\",\"VirtualAccount\":\"%%1843\",\"WorkstationName\":\"-\"},\"System\":{\"Channel\":\"Security\",\"Computer\":\"DESKTOP-5RIKSUG\",\"Correlation\":{\"ActivityID\":\"D0694131-CBB1-0004-2649-69D0B1CBDC01\"},\"EventID\":\"4624\",\"EventRecordID\":\"2020556\",\"Execution\":{\"ProcessID\":\"1688\",\"ThreadID\":\"10816\"},\"Keywords\":\"0x8020000000000000\",\"Level\":\"0\",\"Opcode\":\"0\",\"Provider\":{\"Guid\":\"54849625-5478-4994-A5BA-3E3B0328C30D\",\"Name\":\"Microsoft-Windows-Security-Auditing\"},\"Security\":{},\"Task\":\"12544\",\"TimeCreated\":{\"SystemTime\":\"2026-04-14T07:58:10.3954014Z\"},\"Version\":\"3\"}}}","import_time":"2026-04-19T16:25:13.915422221Z","import_id":224},{"id":469931,"timestamp":"2026-04-14T07:57:43.4878593Z","event_id":4624,"level":"Info","source":"Microsoft-Windows-Security-Auditing","log_name":"Security","computer":"DESKTOP-5RIKSUG","message":"TargetUserName=SYSTEM; LogonProcessName=Advapi  ; TransmittedServices=-; VirtualAccount=%%1843; ElevatedToken=%%1842; SubjectUserSid=S-1-5-18; SubjectDomainName=WORKGROUP; TargetDomainName=NT AUTHORITY; LmPackageName=-; ProcessName=C:\\Windows\\System32\\services.exe; IpPort=-; TargetUserSid=S-1-5-18; TargetLogonId=0x000003e7; WorkstationName=-; LogonGuid=00000000-0000-0000-0000-000000000000; ProcessId=0x00000664; ImpersonationLevel=%%1833; RestrictedAdminMode=-; LogonType=5; AuthenticationPackageName=Negotiate; KeyLength=0; IpAddress=-; RemoteCredentialGuard=-; TargetOutboundUserName=-; TargetOutboundDomainName=-; TargetLinkedLogonId=0x00000000; SubjectUserName=DESKTOP-5RIKSUG$; SubjectLogonId=0x000003e7","raw_xml":"{\"Event\":{\"EventData\":{\"AuthenticationPackageName\":\"Negotiate\",\"ElevatedToken\":\"%%1842\",\"ImpersonationLevel\":\"%%1833\",\"IpAddress\":\"-\",\"IpPort\":\"-\",\"KeyLength\":\"0\",\"LmPackageName\":\"-\",\"LogonGuid\":\"00000000-0000-0000-0000-000000000000\",\"LogonProcessName\":\"Advapi  \",\"LogonType\":\"5\",\"ProcessId\":\"0x00000664\",\"ProcessName\":\"C:\\\\Windows\\\\System32\\\\services.exe\",\"RemoteCredentialGuard\":\"-\",\"RestrictedAdminMode\":\"-\",\"SubjectDomainName\":\"WORKGROUP\",\"SubjectLogonId\":\"0x000003e7\",\"SubjectUserName\":\"DESKTOP-5RIKSUG$\",\"SubjectUserSid\":\"S-1-5-18\",\"TargetDomainName\":\"NT AUTHORITY\",\"TargetLinkedLogonId\":\"0x00000000\",\"TargetLogonId\":\"0x000003e7\",\"TargetOutboundDomainName\":\"-\",\"TargetOutboundUserName\":\"-\",\"TargetUserName\":\"SYSTEM\",\"TargetUserSid\":\"S-1-5-18\",\"TransmittedServices\":\"-\",\"VirtualAccount\":\"%%1843\",\"WorkstationName\":\"-\"},\"System\":{\"Channel\":\"Security\",\"Computer\":\"DESKTOP-5RIKSUG\",\"Correlation\":{\"ActivityID\":\"D0694131-CBB1-0004-2649-69D0B1CBDC01\"},\"EventID\":\"4624\",\"EventRecordID\":\"2020553\",\"Execution\":{\"ProcessID\":\"1688\",\"ThreadID\":\"18556\"},\"Keywords\":\"0x8020000000000000\",\"Level\":\"0\",\"Opcode\":\"0\",\"Provider\":{\"Guid\":\"54849625-5478-4994-A5BA-3E3B0328C30D\",\"Name\":\"Microsoft-Windows-Security-Auditing\"},\"Security\":{},\"Task\":\"12544\",\"TimeCreated\":{\"SystemTime\":\"2026-04-14T07:57:43.4878593Z\"},\"Version\":\"3\"}}}","import_time":"2026-04-19T16:25:13.91537374Z","import_id":224},{"id":469919,"timestamp":"2026-04-14T07:57:43.2665831Z","event_id":4624,"level":"Info","source":"Microsoft-Windows-Security-Auditing","log_name":"Security","computer":"DESKTOP-5RIKSUG","message":"SubjectLogonId=0x000003e7; IpPort=-; RemoteCredentialGuard=-; VirtualAccount=%%1843; TargetLinkedLogonId=0x00000000; ElevatedToken=%%1842; SubjectDomainName=WORKGROUP; TargetDomainName=NT AUTHORITY; WorkstationName=-; IpAddress=-; RestrictedAdminMode=-; TargetOutboundDomainName=-; TargetUserSid=S-1-5-18; TargetUserName=SYSTEM; TargetLogonId=0x000003e7; LogonType=5; LogonProcessName=Advapi  ; TransmittedServices=-; KeyLength=0; ProcessId=0x00000664; SubjectUserSid=S-1-5-18; SubjectUserName=DESKTOP-5RIKSUG$; AuthenticationPackageName=Negotiate; LogonGuid=00000000-0000-0000-0000-000000000000; LmPackageName=-; ProcessName=C:\\Windows\\System32\\services.exe; ImpersonationLevel=%%1833; TargetOutboundUserName=-","raw_xml":"{\"Event\":{\"EventData\":{\"AuthenticationPackageName\":\"Negotiate\",\"ElevatedToken\":\"%%1842\",\"ImpersonationLevel\":\"%%1833\",\"IpAddress\":\"-\",\"IpPort\":\"-\",\"KeyLength\":\"0\",\"LmPackageName\":\"-\",\"LogonGuid\":\"00000000-0000-0000-0000-000000000000\",\"LogonProcessName\":\"Advapi  \",\"LogonType\":\"5\",\"ProcessId\":\"0x00000664\",\"ProcessName\":\"C:\\\\Windows\\\\System32\\\\services.exe\",\"RemoteCredentialGuard\":\"-\",\"RestrictedAdminMode\":\"-\",\"SubjectDomainName\":\"WORKGROUP\",\"SubjectLogonId\":\"0x000003e7\",\"SubjectUserName\":\"DESKTOP-5RIKSUG$\",\"SubjectUserSid\":\"S-1-5-18\",\"TargetDomainName\":\"NT AUTHORITY\",\"TargetLinkedLogonId\":\"0x00000000\",\"TargetLogonId\":\"0x000003e7\",\"TargetOutboundDomainName\":\"-\",\"TargetOutboundUserName\":\"-\",\"TargetUserName\":\"SYSTEM\",\"TargetUserSid\":\"S-1-5-18\",\"TransmittedServices\":\"-\",\"VirtualAccount\":\"%%1843\",\"WorkstationName\":\"-\"},\"System\":{\"Channel\":\"Security\",\"Computer\":\"DESKTOP-5RIKSUG\",\"Correlation\":{\"ActivityID\":\"D0694131-CBB1-0004-2649-69D0B1CBDC01\"},\"EventID\":\"4624\",\"EventRecordID\":\"2020541\",\"Execution\":{\"ProcessID\":\"1688\",\"ThreadID\":\"18556\"},\"Keywords\":\"0x8020000000000000\",\"Level\":\"0\",\"Opcode\":\"0\",\"Provider\":{\"Guid\":\"54849625-5478-4994-A5BA-3E3B0328C30D\",\"Name\":\"Microsoft-Windows-Security-Auditing\"},\"Security\":{},\"Task\":\"12544\",\"TimeCreated\":{\"SystemTime\":\"2026-04-14T07:57:43.2665831Z\"},\"Version\":\"3\"}}}","import_time":"2026-04-19T16:25:13.907969753Z","import_id":224},{"id":469915,"timestamp":"2026-04-14T07:56:21.4594833Z","event_id":4624,"level":"Info","source":"Microsoft-Windows-Security-Auditing","log_name":"Security","computer":"DESKTOP-5RIKSUG","message":"IpPort=-; ImpersonationLevel=%%1833; RemoteCredentialGuard=-; VirtualAccount=%%1843; ElevatedToken=%%1842; SubjectUserName=DESKTOP-5RIKSUG$; TargetUserSid=S-1-5-18; TargetDomainName=NT AUTHORITY; TargetLogonId=0x000003e7; ProcessId=0x00000664; ProcessName=C:\\Windows\\System32\\services.exe; TargetOutboundUserName=-; TargetLinkedLogonId=0x00000000; SubjectLogonId=0x000003e7; LogonType=5; AuthenticationPackageName=Negotiate; TransmittedServices=-; RestrictedAdminMode=-; SubjectUserSid=S-1-5-18; SubjectDomainName=WORKGROUP; LogonProcessName=Advapi  ; WorkstationName=-; LmPackageName=-; KeyLength=0; IpAddress=-; TargetOutboundDomainName=-; TargetUserName=SYSTEM; LogonGuid=00000000-0000-0000-0000-000000000000","raw_xml":"{\"Event\":{\"EventData\":{\"AuthenticationPackageName\":\"Negotiate\",\"ElevatedToken\":\"%%1842\",\"ImpersonationLevel\":\"%%1833\",\"IpAddress\":\"-\",\"IpPort\":\"-\",\"KeyLength\":\"0\",\"LmPackageName\":\"-\",\"LogonGuid\":\"00000000-0000-0000-0000-000000000000\",\"LogonProcessName\":\"Advapi  \",\"LogonType\":\"5\",\"ProcessId\":\"0x00000664\",\"ProcessName\":\"C:\\\\Windows\\\\System32\\\\services.exe\",\"RemoteCredentialGuard\":\"-\",\"RestrictedAdminMode\":\"-\",\"SubjectDomainName\":\"WORKGROUP\",\"SubjectLogonId\":\"0x000003e7\",\"SubjectUserName\":\"DESKTOP-5RIKSUG$\",\"SubjectUserSid\":\"S-1-5-18\",\"TargetDomainName\":\"NT AUTHORITY\",\"TargetLinkedLogonId\":\"0x00000000\",\"TargetLogonId\":\"0x000003e7\",\"TargetOutboundDomainName\":\"-\",\"TargetOutboundUserName\":\"-\",\"TargetUserName\":\"SYSTEM\",\"TargetUserSid\":\"S-1-5-18\",\"TransmittedServices\":\"-\",\"VirtualAccount\":\"%%1843\",\"WorkstationName\":\"-\"},\"System\":{\"Channel\":\"Security\",\"Computer\":\"DESKTOP-5RIKSUG\",\"Correlation\":{\"ActivityID\":\"D0694131-CBB1-0004-2649-69D0B1CBDC01\"},\"EventID\":\"4624\",\"EventRecordID\":\"2020537\",\"Execution\":{\"ProcessID\":\"1688\",\"ThreadID\":\"1768\"},\"Keywords\":\"0x8020000000000000\",\"Level\":\"0\",\"Opcode\":\"0\",\"Provider\":{\"Guid\":\"54849625-5478-4994-A5BA-3E3B0328C30D\",\"Name\":\"Microsoft-Windows-Security-Auditing\"},\"Security\":{},\"Task\":\"12544\",\"TimeCreated\":{\"SystemTime\":\"2026-04-14T07:56:21.4594833Z\"},\"Version\":\"3\"}}}","import_time":"2026-04-19T16:25:13.907911792Z","import_id":224}],"total":1773,"page":1,"page_size":10,"total_pages":178,"query_time_ms":1030}
